{
  "AUTHOR": "Eragon5779",
  "NAME": "TechCogs",
  "SHORT": "A collection of cogs for technology purposes",
  "Description": "A collection of cogs for gathering information about technology, and other tech utility commands"
}
